<svg width="37" height="36" viewBox="0 0 37 36" fill="none" xmlns="http://www.w3.org/2000/svg">
<path d="M31.7094 13.245L33.1036 12.5482L31.9087 11.3534L35.869 8.87862L35.2636 7.90996L30.0856 11.1466L31.1754 12.2364L30.5928 12.5277C30.0417 12.2181 29.4625 11.9497 28.8508 11.7372L27.9507 11.4242L30.3512 7.82257H28.3945L29.8189 4.02504L28.7492 3.6241L26.7462 8.96486H28.2163L26.8364 11.0353L24.5353 10.2351C23.618 9.91582 23.0012 9.04825 23.0012 8.07673V7.55014C25.352 6.01376 27.2533 3.83428 28.4636 1.20759L28.8365 0.397705H8.02749L8.40045 1.20759C9.6107 3.83485 11.512 6.01376 13.8629 7.55014V8.07673C13.8629 9.04825 13.246 9.91525 12.3288 10.2345L8.01322 11.7355C3.65482 13.2519 0.726562 17.3704 0.726562 21.9852V29.526C0.726562 32.99 3.54516 35.8086 7.00914 35.8086H8.15143H9.51818H36.1375V21.9852C36.1375 18.4744 34.4395 15.2543 31.7094 13.245V13.245ZM9.84259 1.53999H27.0209C25.2075 4.89775 22.1262 7.35938 18.432 8.37316C14.7379 7.35938 11.6565 4.89775 9.84259 1.53999ZM34.9952 34.6663H29.2838V24.5245C29.2838 23.1144 29.8326 21.7888 30.8298 20.7915L30.0222 19.9839C28.8091 21.197 28.1415 22.8094 28.1415 24.5245V34.6663H10.7479L17.5525 28.3478L19.7274 27.9851C20.5538 27.8474 21.3043 27.4614 21.8966 26.8685L26.4772 22.2879C26.8136 21.9521 26.9992 21.5043 26.9992 21.028C26.9992 20.3004 26.56 19.6755 25.934 19.3985C26.251 19.0661 26.428 18.6338 26.428 18.1723C26.428 17.4446 25.9888 16.8198 25.3628 16.5428C25.6798 16.2104 25.8569 15.778 25.8569 15.3166C25.8569 14.3336 25.0573 13.534 24.0744 13.534C23.598 13.534 23.1502 13.7196 22.8138 14.056L22.2747 14.5952C21.9965 13.9715 21.3734 13.534 20.6475 13.534C20.1712 13.534 19.7234 13.7196 19.387 14.056L17.2023 16.2407C16.9973 15.2452 16.417 14.3576 15.5535 13.7796C15.3136 13.6191 15.0337 13.534 14.7447 13.534C13.944 13.534 13.2917 14.1863 13.2917 14.987V15.5759C13.2917 16.3161 13.0033 17.0128 12.4801 17.536L11.6074 18.4087C10.8524 19.1638 10.4366 20.1678 10.4366 21.2359V23.007L8.72315 24.7204V24.5245C8.72315 22.8094 8.05548 21.197 6.84237 19.9839L6.03477 20.7915C7.03142 21.7888 7.58029 23.1144 7.58029 24.5245V25.8627L3.74963 29.6934L4.55722 30.501L11.5783 23.4799V21.2359C11.5783 20.4734 11.8753 19.7561 12.4144 19.2163L13.2872 18.3436C14.0268 17.6046 14.434 16.6216 14.434 15.5759V14.987C14.434 14.754 14.723 14.5986 14.9183 14.7288C15.6877 15.2446 16.1474 16.1053 16.1474 17.0323V17.2956L14.0302 19.4128L14.0011 19.4419L14.8087 20.2495L14.8378 20.2204L17.2897 17.7685L20.1946 14.8636C20.3157 14.7431 20.4761 14.6763 20.6475 14.6763C21.0005 14.6763 21.2877 14.9636 21.2877 15.3166C21.2877 15.4879 21.2209 15.6484 21.1004 15.7695L16.8859 19.9839L17.6935 20.7915L21.908 16.5771L23.6214 14.8636C23.7425 14.7431 23.903 14.6763 24.0744 14.6763C24.4273 14.6763 24.7146 14.9636 24.7146 15.3166C24.7146 15.4879 24.6478 15.6484 24.5273 15.7695L23.385 16.9118L18.5994 21.6974L19.407 22.505L24.1926 17.7194C24.3137 17.5988 24.4742 17.532 24.6455 17.532C24.9985 17.532 25.2857 17.8193 25.2857 18.1723C25.2857 18.3436 25.2189 18.5041 25.0984 18.6252L23.9561 19.7675L20.3128 23.4108L21.1204 24.2184L24.7637 20.5751C24.8848 20.4546 25.0453 20.3877 25.2166 20.3877C25.5696 20.3877 25.8569 20.675 25.8569 21.028C25.8569 21.1993 25.7901 21.3598 25.6696 21.4809L21.089 26.0615C20.6658 26.4847 20.13 26.7606 19.5395 26.8588L17.027 27.2774L9.06926 34.6663H8.15143H7.00914C4.17513 34.6663 1.86885 32.3601 1.86885 29.526V21.9852C1.86885 17.8564 4.48869 14.1708 8.38846 12.8144L12.704 11.3134C14.0342 10.8508 14.9343 9.61768 14.9937 8.22009C16.0264 8.77296 17.1281 9.21217 18.2864 9.51716L18.432 9.55543L18.5771 9.51716C19.7354 9.21217 20.8377 8.77296 21.8697 8.22009C21.9291 9.61768 22.8293 10.8508 24.1595 11.3134L26.1813 12.0165L25.3811 13.217L26.3315 13.8504L27.2956 12.4043L28.475 12.8144C28.7663 12.9155 29.0479 13.0337 29.3243 13.1605L26.1722 14.7363L26.6833 15.758L30.5471 13.8259C33.2743 15.5867 34.9952 18.64 34.9952 21.9852V34.6663Z" fill="#8CC153"/>
<path d="M19.5753 6.10918H20.7176C20.7176 5.14852 19.7141 4.39575 18.433 4.39575C17.1519 4.39575 16.1484 5.14852 16.1484 6.10918H17.2907C17.2907 5.87616 17.7356 5.53804 18.433 5.53804C19.1304 5.53804 19.5753 5.87616 19.5753 6.10918Z" fill="#8CC153"/>
</svg>
