<svg width="53" height="22" viewBox="0 0 53 22" fill="none" xmlns="http://www.w3.org/2000/svg">
<rect x="0.570312" y="4.14648" width="20.5573" height="17.0212" fill="#FFDD37"/>
<path d="M31.1953 19.1782H48.0826V21.1355H31.1953V19.1782Z" fill="#FFDD37"/>
<path d="M48.4297 19.1473L51.9165 15.228V17.1853L48.4297 21.1046V19.1473Z" fill="#FFDD37"/>
<path d="M34.919 14.73H52.0422L48.1015 18.9696H31.1445L34.919 14.73Z" fill="#FFDD37"/>
<rect x="24.0664" y="4.14648" width="1.97726" height="17.0212" fill="#FFDD37"/>
<path d="M32.5954 4.33154L34.3007 4.99568L28.3211 20.9387L26.5273 20.3352L32.5954 4.33154Z" fill="#FFDD37"/>
<path d="M37.8191 2.1875L39.2987 2.85178L34.5267 4.84487L32.9766 4.11358L37.8191 2.1875Z" fill="#FFDD37"/>
<path d="M34.6774 5.08651L30.8741 18.7346V20.3651L28.6094 20.9692L34.6774 5.08651Z" fill="#FFDD37"/>
<path d="M34.6774 5.08651L30.8741 18.7346L34.6774 14.2656H35.5544L39.7818 3.18408L34.6774 5.08651Z" fill="#FFDD37"/>
<path d="M26.3359 4.14647L30.5118 0.345703V8.80049L26.3359 19.7313V4.14647Z" fill="#FFDD37"/>
<path d="M27.9608 0.285156H29.9381L26.3874 3.7881H24.4102L27.9608 0.285156Z" fill="#FFDD37"/>
<path d="M4.60589 0.192871H25.1632L21.2941 3.73037H1.11328L4.60589 0.192871Z" fill="#FFDD37"/>
<path d="M21.4219 4.02206L23.7476 4.02187L23.7079 18.9205L21.4219 21.1679V4.02206Z" fill="#FFDD37"/>
<path d="M21.4219 4.02206L23.7476 4.02187L25.6959 2.12062V0.275879L21.4219 4.02206Z" fill="#FFDD37"/>
</svg>
