<svg width="33" height="32" viewBox="0 0 33 32" fill="none" xmlns="http://www.w3.org/2000/svg">
<path d="M23.4633 26.5762C22.7053 26.5762 22.0259 27.0284 21.7329 27.7279C21.4487 28.4055 21.6091 29.1677 22.1289 29.8823L24.1954 30.1764C24.8663 29.8905 25.3383 29.225 25.3383 28.4512C25.3383 27.4175 24.4969 26.5762 23.4633 26.5762Z" fill="#F6D48A"/>
<path d="M8.46484 11.5762C7.43122 11.5762 6.58984 12.4175 6.58984 13.4512C6.58984 14.4848 7.43122 15.3262 8.46484 15.3262C9.49847 15.3262 10.3398 14.4848 10.3398 13.4512C10.3398 12.4175 9.49847 11.5762 8.46484 11.5762Z" fill="#F6D48A"/>
<path d="M23.414 8.32734C23.3611 8.72615 23.2579 9.11815 23.0739 9.48959C22.4357 10.7768 21.1476 11.5761 19.712 11.5761C17.6439 11.5761 15.962 9.89428 15.962 7.82609C15.962 6.39053 16.7613 5.1024 18.0485 4.46428C18.4199 4.28003 18.8114 4.17634 19.2099 4.12322L15.3459 0.259277L13.0516 0.641965C10.1927 1.11703 8.41997 2.26715 7.92372 2.48584C8.19847 3.15871 8.46204 3.45078 8.46204 4.07609C8.46204 5.10971 7.62066 5.95109 6.58703 5.95109C5.66966 5.95109 5.26866 5.36615 4.74135 5.02459C4.42516 5.49072 2.05747 7.55234 1.04297 11.9564L4.80285 12.6497C5.17135 10.9664 6.66947 9.70115 8.4621 9.70115C10.5303 9.70115 12.2121 11.383 12.2121 13.4512C12.2121 13.6487 12.1833 13.8388 12.1537 14.0282L32.8995 17.9058V17.7504L23.414 8.32734Z" fill="#F6D48A"/>
<path d="M21.1037 6.4374C20.6487 6.11602 20.168 5.95215 19.7084 5.95215C19.4219 5.95215 19.1435 6.01621 18.8835 6.1444C18.2399 6.4639 17.8398 7.10846 17.8398 7.82621C17.8398 8.85984 18.6812 9.70121 19.7148 9.70121C20.4326 9.70121 21.0772 9.30115 21.3967 8.65752C21.7317 7.98002 21.6246 7.17709 21.1037 6.4374Z" fill="#F6D48A"/>
<path d="M32.9023 22.7117V19.8128L11.374 15.7884C10.6862 16.6427 9.64484 17.2011 8.46484 17.2011C6.79091 17.2011 5.38684 16.0921 4.90609 14.5754L0.902344 13.8364V26.4168L6.51022 27.4569L6.59628 26.4205C6.67503 25.4564 7.49622 24.7011 8.46484 24.7011C9.49847 24.7011 10.3398 25.5425 10.3398 26.5761C10.3398 27.0104 10.2166 27.2014 9.95347 28.149L19.904 29.5653C19.6497 28.7095 19.6595 27.8282 20.005 27.0037C20.591 25.6047 21.9487 24.7011 23.4648 24.7011C25.533 24.7011 27.2148 26.3829 27.2148 28.4511C27.2148 29.2147 26.9829 29.9239 26.5897 30.5169L32.9023 31.4064V26.6905C32.6445 26.5667 31.0273 26.3163 31.0273 24.7011C31.0273 23.0124 32.6953 22.8437 32.9023 22.7117ZM16.9023 24.7011C15.3515 24.7011 14.0898 23.4395 14.0898 21.8886C14.0898 20.3377 15.3515 19.0761 16.9023 19.0761C18.4532 19.0761 19.7148 20.3377 19.7148 21.8886C19.7148 23.4395 18.4532 24.7011 16.9023 24.7011Z" fill="#F6D48A"/>
</svg>
