<svg width="30" height="31" viewBox="0 0 30 31" fill="none" xmlns="http://www.w3.org/2000/svg">
<path d="M16.3225 25.1274L14.5719 16.9476L9.46276 23.5727L9.4827 23.5772C9.16257 23.9995 8.92523 24.4953 8.80047 25.0458C8.33213 27.1122 9.62769 29.1671 11.6941 29.6354C13.7606 30.1038 15.8155 28.8082 16.2838 26.7418C16.4086 26.1913 16.4082 25.6416 16.3014 25.1226L16.3225 25.1274Z" fill="#FC5123"/>
<path d="M24.942 18.5136L16.7329 16.9062L20.8148 24.2092L20.8268 24.1926C21.0892 24.653 21.4517 25.0662 21.9087 25.3974C23.6245 26.6407 26.0233 26.2577 27.2666 24.542C28.5099 22.8262 28.1269 20.4274 26.4111 19.1841C25.9541 18.8529 25.4486 18.6371 24.9293 18.5311L24.942 18.5136Z" fill="#FC5123"/>
<path d="M20.9805 7.25861L16.9923 14.6116L25.1816 12.8998L25.1694 12.8834C25.6872 12.7707 26.1899 12.5483 26.6426 12.2112C28.342 10.9456 28.6936 8.54203 27.4281 6.84267C26.1625 5.14325 23.7589 4.79155 22.0595 6.05712C21.6068 6.39426 21.2497 6.81215 20.9934 7.27594L20.9805 7.25861Z" fill="#FC5123"/>
<path d="M9.99325 7.47143L15.231 13.9936L16.8205 5.77969L16.8006 5.78461C16.897 5.26352 16.8864 4.71397 16.7506 4.16608C16.241 2.10942 14.1606 0.855303 12.1039 1.36493C10.0472 1.87456 8.79308 3.95496 9.30271 6.01163C9.43847 6.55951 9.68569 7.05044 10.0142 7.46623L9.99325 7.47143Z" fill="#FC5123"/>
<path d="M6.07339 18.6985L13.6075 15.0639L5.96238 11.6657L5.96271 11.6861C5.47671 11.4749 4.93887 11.3615 4.37449 11.3704C2.25589 11.4038 0.565531 13.1484 0.598971 15.267C0.632412 17.3856 2.37699 19.076 4.49559 19.0426C5.05997 19.0337 5.59396 18.9033 6.07305 18.6769L6.07339 18.6985Z" fill="#FC5123"/>
</svg>
