<svg width="9" height="11" viewBox="0 0 9 11" fill="none" xmlns="http://www.w3.org/2000/svg">
<path d="M7.96341 10.2598H7.30849L7.30841 9.09096C7.30841 7.91915 6.66552 6.84185 5.49819 6.05759C5.35049 5.95826 5.25871 5.74463 5.25871 5.5C5.25871 5.25537 5.35049 5.04174 5.49812 4.94248C6.66552 4.15811 7.30841 3.08085 7.30849 1.909V0.740185H7.96341C8.16778 0.740185 8.33349 0.574444 8.33349 0.370074C8.33349 0.165704 8.16775 0 7.96341 0H0.370074C0.165704 0 0 0.165741 0 0.370074C0 0.574481 0.165741 0.740185 0.370074 0.740185H1.025V1.909C1.025 3.08093 1.66785 4.15822 2.83519 4.94244C2.98293 5.04174 3.07471 5.25533 3.07471 5.5C3.07471 5.74463 2.98293 5.95826 2.83522 6.05752C1.66785 6.84181 1.025 7.91911 1.025 9.09096V10.2598H0.370074C0.165704 10.2598 0 10.4256 0 10.6299C0 10.8343 0.165741 11 0.370074 11H7.96341C8.16778 11 8.33349 10.8343 8.33349 10.6299C8.33349 10.4255 8.16775 10.2598 7.96341 10.2598ZM3.79667 4.08748C3.79667 3.88311 3.96237 3.71737 4.16674 3.71737C4.37111 3.71737 4.53682 3.88311 4.53682 4.08748V4.7417C4.53682 4.94611 4.37111 5.11178 4.16674 5.11178C3.96237 5.11178 3.79667 4.94607 3.79667 4.7417V4.08748ZM3.905 6.44281C3.97382 6.37404 4.0693 6.33441 4.16663 6.33441C4.26397 6.33441 4.35945 6.374 4.42826 6.44281C4.49745 6.51167 4.53671 6.60718 4.53671 6.70448C4.53671 6.80178 4.49745 6.8973 4.42826 6.96611C4.35945 7.03493 4.26397 7.07456 4.16663 7.07456C4.0693 7.07456 3.97382 7.03496 3.905 6.96611C3.83615 6.8973 3.79656 6.80178 3.79656 6.70448C3.79656 6.60718 3.83611 6.5117 3.905 6.44281ZM1.88674 10.2634C2.18867 9.11874 3.74456 7.87319 3.93878 7.72137C4.07263 7.6167 4.26071 7.61663 4.39467 7.72137C4.58889 7.87322 6.14474 9.11874 6.44667 10.2634H1.88674Z" fill="#848484"/>
</svg>
