<svg width="36" height="43" viewBox="0 0 36 43" fill="none" xmlns="http://www.w3.org/2000/svg">
<g filter="url(#filter0_d)">
<path d="M26.8174 11.0863C26.8174 11.0863 25.4225 14.7522 22.7798 13.9594C20.5724 13.2972 20.699 10.303 21.7606 7.8328C23.5999 3.55273 18.3472 0.275146 18.3472 0.275146C18.3472 0.275146 18.4293 4.61635 15.0904 6.26993C12.2295 7.68685 11.4444 10.7773 12.7778 13.0854C14.0141 15.2255 12.7029 16.5231 11.5514 16.9854C8.62237 18.1614 6.9178 14.523 6.9178 14.523C5.68546 16.5477 4.97656 18.9254 4.97656 21.4686C4.97656 28.8294 10.9169 34.8005 18.265 34.8543C14.9052 34.8009 12.1871 32.053 12.184 28.6814C12.1685 27.3456 12.4888 25.92 13.1359 24.4441L13.4934 23.6288L15.3044 24.1581C15.595 22.7279 16.3279 21.4543 17.4634 20.4242C18.5341 19.4529 19.5788 19.041 19.6944 18.9972L20.9276 18.5303L21.0611 19.8421C21.1976 21.1842 21.5443 22.2947 22.1209 23.2369C22.6381 24.0808 23.1178 24.7887 23.6788 25.5917C24.2436 26.4018 24.5515 27.4976 24.5463 28.6783C24.5458 30.3279 23.9028 31.879 22.7357 33.0461C21.5688 34.2131 20.0166 34.8556 18.3647 34.8556H18.3649C25.759 34.8556 31.7532 28.8629 31.7532 21.4687C31.7532 17.2799 29.829 13.5404 26.8174 11.0863V11.0863Z" fill="#8CC153"/>
<path d="M22.5215 28.6714C22.5251 27.9148 22.3418 27.2151 22.0186 26.7515C21.5156 26.0315 20.9703 25.235 20.3943 24.2953C19.8891 23.4699 19.5234 22.5597 19.2889 21.5391C18.3741 22.213 17.2298 23.4586 17.1912 25.4879L17.166 26.8129L14.669 26.083C14.3551 26.9916 14.2015 27.8563 14.2114 28.6626L14.2115 28.6751C14.2123 30.9666 16.076 32.8295 18.366 32.8295C19.4766 32.8295 20.5202 32.3976 21.3043 31.6135C22.0892 30.8286 22.5215 29.7855 22.5215 28.6762V28.6714Z" fill="#8CC153"/>
</g>
<defs>
<filter id="filter0_d" x="0.976562" y="0.275146" width="34.7766" height="42.5805" filterUnits="userSpaceOnUse" color-interpolation-filters="sRGB">
<feFlood flood-opacity="0" result="BackgroundImageFix"/>
<feColorMatrix in="SourceAlpha" type="matrix" values="0 0 0 0 0 0 0 0 0 0 0 0 0 0 0 0 0 0 127 0"/>
<feOffset dy="4"/>
<feGaussianBlur stdDeviation="2"/>
<feColorMatrix type="matrix" values="0 0 0 0 0 0 0 0 0 0 0 0 0 0 0 0 0 0 0.25 0"/>
<feBlend mode="normal" in2="BackgroundImageFix" result="effect1_dropShadow"/>
<feBlend mode="normal" in="SourceGraphic" in2="effect1_dropShadow" result="shape"/>
</filter>
</defs>
</svg>
