<svg width="35" height="35" viewBox="0 0 35 35" fill="none" xmlns="http://www.w3.org/2000/svg">
<path d="M34.0602 1.77284C33.32 0.708056 31.7636 0.662911 30.9629 1.68329C27.457 6.1518 28.658 4.77357 27.0403 6.16152L28.011 3.6816C28.4837 2.4741 27.6549 1.15579 26.3616 1.05855C25.069 0.961176 24.0517 2.14047 24.3386 3.40553L25.3265 7.76095C24.6979 8.39864 24.0972 9.06866 23.5253 9.76972L24.0889 7.64063C24.4209 6.38657 23.4474 5.17272 22.1511 5.22286C20.8553 5.27381 19.9798 6.56141 20.4091 7.78524L21.8826 11.9859C21.3113 12.8355 20.8407 13.614 20.3506 14.5149C20.6033 12.3212 20.5936 12.4453 20.5936 12.2932C20.5936 11.1026 19.512 10.1811 18.3156 10.4032C16.5509 10.7305 16.3182 13.1382 17.3303 12.9953C17.6071 12.9562 17.7997 12.7001 17.7606 12.4233C17.6863 11.8928 18.0928 11.3826 18.6711 11.3826C19.2087 11.3826 19.6389 11.8512 19.575 12.4018L19.2346 15.3575L18.569 14.0836C18.4396 13.8358 18.1338 13.7401 17.886 13.8694C17.6383 13.9988 17.5424 14.3046 17.6718 14.5524L19.0475 17.1852C16.6848 22.6092 15.6607 28.3935 16.2268 34.486C16.2512 34.7485 16.4718 34.9454 16.7302 34.9454C17.0298 34.9454 17.2622 34.6883 17.2347 34.3924C16.6895 28.5256 17.6604 22.9414 19.936 17.6929C24.5791 18.0069 24.2666 17.9878 24.3636 17.9878C25.59 17.9878 26.5209 16.8416 26.2346 15.6211C25.9382 14.3589 24.5077 13.7438 23.3877 14.398L20.7592 15.9333C21.3052 14.8493 21.9349 13.7491 22.66 12.6594C27.271 13.65 27.0401 13.6175 27.3266 13.6175C28.4116 13.6175 29.3392 12.6845 29.2385 11.5239C29.1268 10.2326 27.7996 9.41767 26.5969 9.90454L23.8301 11.0242C24.4915 10.164 25.2186 9.31942 26.0177 8.50405C30.5165 10.0247 30.3344 10.0005 30.7605 10.0005C32.6703 10.0005 33.4341 7.45067 31.7615 6.4284C31.5232 6.28271 31.2116 6.35775 31.0657 6.5963C30.9199 6.83477 30.9951 7.14626 31.2336 7.29209C31.5128 7.46275 31.6817 7.76392 31.6723 8.09869C31.6557 8.69191 31.0648 9.14154 30.4659 8.93916L27.6473 7.98647L29.683 7.42267C29.9523 7.34803 30.1102 7.0692 30.0356 6.79982C29.961 6.5305 29.6826 6.37266 29.4128 6.44716L27.7107 6.91865C28.0366 6.63915 28.373 6.36497 28.7193 6.09626L33.065 4.70731C34.3001 4.31234 34.8004 2.83788 34.0602 1.77284V1.77284ZM23.8982 15.272C24.7902 14.7509 25.7103 15.8821 25.056 16.6529C24.8663 16.8763 24.5907 16.9932 24.2975 16.9733L21.3291 16.7725L23.8982 15.272ZM23.1104 7.38164L22.3491 10.2578L21.3642 7.45033C21.0224 6.47584 22.3074 5.78693 22.9401 6.57605C23.1233 6.80468 23.1854 7.09829 23.1104 7.38164V7.38164ZM26.9766 10.8429C27.2482 10.7331 27.5474 10.7578 27.7971 10.9109C28.6599 11.4398 28.1367 12.8005 27.1274 12.5839L24.2186 11.9589L26.9766 10.8429ZM25.9839 6.08317L25.3258 3.1817C25.2609 2.89592 25.3335 2.60467 25.5249 2.38266C26.185 1.61682 27.4449 2.35074 27.0683 3.31261L25.9839 6.08317ZM33.3441 3.16591C33.2499 3.44346 33.0359 3.65373 32.7567 3.743L29.9228 4.6488L31.7593 2.30803C32.393 1.50042 33.6699 2.20491 33.3441 3.16591Z" fill="#ABA2E0"/>
<path d="M13.0404 5.51652C12.4377 5.65155 11.9491 6.05306 11.6996 6.61795C9.40881 11.8052 10.2313 10.1761 9.00406 11.9225L9.33222 9.2831C9.49215 7.99644 8.36387 6.92323 7.08653 7.14841C5.80938 7.37339 5.11521 8.76707 5.7054 9.92208L7.73643 13.8962C7.28492 14.6687 6.86897 15.4655 6.48817 16.2852L6.50876 14.0878C6.51456 13.4703 6.23492 12.9029 5.7417 12.5313C4.70601 11.7508 3.2134 12.1942 2.77153 13.4135C2.56113 13.9941 2.63657 14.622 2.9785 15.1363L5.44236 18.842C5.11514 19.7602 4.82842 20.7033 4.58265 21.6706L4.3128 19.6799C4.1387 18.395 2.77349 17.6461 1.59609 18.19C0.418884 18.7339 0.103816 20.2589 0.969798 21.2246L3.97877 24.5809C3.4894 27.6023 3.37171 30.8421 3.64015 34.0318C3.66235 34.2959 3.88355 34.4955 4.14389 34.4955C4.44189 34.4955 4.67362 34.2411 4.64878 33.947C4.45673 31.6648 4.39762 28.4385 4.97256 24.8529L9.1976 24.0758C10.4731 23.8413 11.1567 22.4424 10.5578 21.2918C9.95905 20.1416 8.42096 19.8989 7.49721 20.8092L5.33594 22.9388C5.59804 21.7473 5.93584 20.529 6.36502 19.3037L10.7117 19.1394C11.7516 19.1001 12.5662 18.2553 12.5662 17.2162C12.5662 17.0003 12.5296 16.7862 12.4575 16.5797C11.8483 14.8342 9.33735 15.0515 9.68933 16.0435C9.78279 16.3069 10.0719 16.4446 10.3355 16.3513C10.9186 16.1443 11.554 16.5785 11.554 17.2162C11.554 17.7088 11.1673 18.1093 10.6735 18.1279L7.70033 18.2404L8.80391 17.429C9.0291 17.2634 9.07748 16.9467 8.91195 16.7215C8.74642 16.4963 8.42966 16.4479 8.20441 16.6135L7.09375 17.43C7.52292 16.4307 8.01877 15.4333 8.59027 14.4484C13.2852 14.8084 12.9749 14.787 13.0835 14.787C14.2984 14.787 15.2325 13.6567 14.9579 12.4373C14.6729 11.1721 13.2479 10.5445 12.1222 11.1885L9.83947 12.4944C10.0863 12.1431 10.3444 11.7945 10.6133 11.4489L14.483 9.02937C15.0067 8.70196 15.3344 8.16103 15.3823 7.54533C15.4827 6.25287 14.3062 5.23263 13.0404 5.51652V5.51652ZM1.72342 20.5488C1.31267 20.0906 1.46193 19.367 2.02061 19.1088C2.57915 18.8508 3.22703 19.2059 3.30976 19.8158L3.70945 22.7641L1.72342 20.5488ZM8.20765 21.5301C8.38121 21.359 8.60808 21.2667 8.84595 21.2667C9.95743 21.2667 10.0993 22.8807 9.01459 23.0801L6.08849 23.6183L8.20765 21.5301ZM5.46867 17.0533L3.8214 14.5758C3.24943 13.7155 4.32541 12.7313 5.13262 13.3397C5.36671 13.516 5.49938 13.7853 5.49661 14.0783L5.46867 17.0533ZM8.32777 9.15819L7.96074 12.1107L6.60681 9.46138C6.29754 8.85635 6.73286 8.13093 7.42407 8.13093C7.95662 8.131 8.39714 8.59986 8.32777 9.15819V9.15819ZM12.6248 12.0672C13.5205 11.555 14.4319 12.693 13.7702 13.4585C13.5785 13.6801 13.3012 13.7944 13.0088 13.772L10.0424 13.5445L12.6248 12.0672ZM13.9463 8.17115L11.4236 9.74852L12.6256 7.02681C12.7787 6.68016 13.1126 6.4815 13.465 6.4815C14.3764 6.4815 14.7202 7.68731 13.9463 8.17115Z" fill="#ABA2E0"/>
</svg>
