<svg width="30" height="37" viewBox="0 0 30 37" fill="none" xmlns="http://www.w3.org/2000/svg">
<path d="M27.4606 29.3027C29.3235 23.6324 29.6426 18.9047 28.4699 14.4219C28.0246 12.7 27.0524 10.9484 25.7461 9.48633C24.7219 8.33594 23.5641 7.46016 22.3543 6.88125C22.9703 8.0168 23.2821 9.45664 23.2598 11.0969C23.2449 11.9504 23.1485 12.7965 22.9629 13.6277L22.4805 15.7281C22.436 15.9137 22.2801 16.0547 22.0871 16.0695C22.0723 16.0695 22.0574 16.0695 22.05 16.0695C21.8719 16.0695 21.7086 15.9656 21.6418 15.8023L20.9219 14.1324C20.8922 14.0656 20.8774 13.984 20.8848 13.9098C21.1223 11.5496 20.2391 9.45664 18.25 7.68281C17.5375 7.05937 16.7582 6.51758 15.927 6.07227C15.6301 6.13164 15.1403 6.22813 14.5836 6.36914C14.4574 6.88867 13.9453 7.20781 13.4258 7.08164C13.2551 7.04453 13.0992 6.95547 12.9731 6.83672C12.7949 6.89609 12.6242 6.96289 12.461 7.02969C10.2047 7.95 8.28987 10.0504 7.22112 12.8113C6.08557 15.7207 5.9594 19.0828 6.85744 22.2742C7.91877 26.0594 9.83362 29.3844 12.3793 31.893C14.6133 34.0898 17.3223 35.6262 20.0164 36.2348C21.7532 36.6281 23.7867 36.6652 25.5977 36.3535C27.2231 36.0715 28.4328 35.5148 28.6926 34.9359C28.9153 34.4387 28.7742 34.2457 28.277 33.7336C27.6016 33.0285 26.5848 31.9672 27.4606 29.3027V29.3027ZM10.6723 26.8684C10.4571 26.9945 10.1899 26.9203 10.0637 26.7051C9.81135 26.2672 9.56643 25.8145 9.34377 25.3543C8.9133 24.4785 8.53479 23.573 8.22307 22.6527C7.88909 21.6656 7.61448 20.6637 7.39924 19.6469C7.34729 19.4094 7.50315 19.1719 7.74065 19.1199C7.97815 19.068 8.21565 19.2238 8.2676 19.4613C8.47541 20.441 8.73518 21.4133 9.06174 22.3633C9.36604 23.2539 9.72971 24.1223 10.1379 24.9609C10.3531 25.3988 10.5906 25.8367 10.8281 26.2523C10.9617 26.4676 10.8875 26.7422 10.6723 26.8684V26.8684ZM13.2403 30.2231C13.0547 30.3863 12.7801 30.3715 12.6094 30.1934C12.2012 29.748 11.8078 29.273 11.4442 28.7832C11.2957 28.5902 11.3328 28.3082 11.5258 28.1598C11.7188 28.0113 12.0008 28.0484 12.1492 28.2414L12.1567 28.2488C12.5055 28.7164 12.884 29.1691 13.2699 29.5922C13.4332 29.7777 13.4258 30.0598 13.2403 30.2231V30.2231Z" fill="#FFB523"/>
<path d="M9.18742 5.14434C9.22453 5.11465 9.26164 5.09238 9.29875 5.07754L10.3898 4.63965L9.67726 4.85488C9.66242 4.85488 9.65499 4.8623 9.64015 4.8623L6.41906 5.55254C3.73234 6.63613 1.98078 8.30605 1.22375 10.5178C0.407339 12.9002 0.882339 15.5201 1.42414 17.3014C1.78039 18.4666 2.25539 19.5947 2.84171 20.6709L2.84914 20.6783L3.78429 22.3705L3.94757 21.0791C2.53742 17.4646 2.99015 13.5682 5.26124 9.80527C6.9757 6.9627 9.09835 5.21855 9.18742 5.14434V5.14434Z" fill="#FFB523"/>
<path d="M15.4723 4.88486C16.7043 5.41924 17.8398 6.13916 18.8418 7.02979C20.9867 8.94463 22.0035 11.3196 21.7809 13.895L21.9219 14.2142L22.1 13.4349V13.4274C22.1074 13.3903 23.0871 9.40479 21.291 6.85166C20.4375 5.63447 19.0719 4.92197 17.2313 4.729L15.3906 4.8626H15.4055C15.4203 4.87002 15.45 4.87744 15.4723 4.88486V4.88486Z" fill="#FFB523"/>
<path d="M10.8194 0.876921C10.8417 0.906609 12.8827 4.08317 13.1944 6.22067C13.2315 6.46559 13.4542 6.6363 13.6991 6.59919C13.944 6.56208 14.1147 6.33942 14.0776 6.0945V6.08708C13.7362 3.76403 11.6581 0.528093 11.569 0.387077C11.4354 0.179265 11.1608 0.11989 10.953 0.246062C10.7452 0.379656 10.6858 0.654265 10.812 0.862078C10.8194 0.869499 10.8194 0.869499 10.8194 0.876921V0.876921Z" fill="#FFB523"/>
</svg>
