<svg width="28" height="35" viewBox="0 0 28 35" fill="none" xmlns="http://www.w3.org/2000/svg">
<path d="M11.1636 33.8926C8.28538 33.3173 5.64239 31.9027 3.56708 29.8271L2.18056 28.4406H4.79167C2.6762 26.3254 1.32634 23.5652 0.955322 20.5967L0.875 19.9545L4.1389 20.6072L3.5097 19.6007C1.85927 16.9596 1.60683 13.6782 2.83334 10.8156L4.1389 12.7739V11.2446C4.1389 8.88017 5.07822 6.61234 6.75001 4.94055L7.40279 7.55166L7.5067 7.30878C8.71696 4.48539 10.7221 2.07508 13.2778 0.371094L13.8907 0.779718C15.9986 2.18504 17.4307 4.39996 17.8473 6.89888L19.1528 4.94055C20.4239 6.63561 21.1112 8.6969 21.1112 10.8156V11.4683L21.9832 10.8866C22.6618 10.4343 23.0695 9.67288 23.0695 8.85722L23.7105 9.9795C24.9848 12.2091 25.4502 14.8103 25.0278 17.3434C25.8636 17.3434 26.6655 17.0112 27.2565 16.4203L27.6389 16.0378L27.3126 19.3179C27.0996 21.4427 26.3095 23.4689 25.0278 25.1767H26.9862L25.2583 28.6363C24.6766 29.8003 23.8603 30.8315 22.8607 31.6646L22.8084 31.7045C21.2807 32.9801 19.4005 33.7604 17.4186 33.9408L15.421 34.1225C13.9982 34.2512 12.5641 34.1738 11.1636 33.8926V33.8926Z" fill="#52986F"/>
</svg>
