<svg width="34" height="41" viewBox="0 0 34 41" fill="none" xmlns="http://www.w3.org/2000/svg">
<path d="M19.0261 0.445901C18.7282 0.310822 18.3799 0.361291 18.1333 0.576136C16.8793 1.66989 14.7707 3.43419 14.0244 3.85818C13.6639 4.06404 13.2244 4.09661 12.7842 3.95825C10.2516 3.14442 7.52126 4.34724 6.18587 6.75693C5.47782 8.03545 4.52735 9.12264 3.43602 9.90069C1.50242 11.2793 0.347656 13.636 0.347656 16.2044C0.347656 16.6902 0.39 17.1761 0.473828 17.6497C0.766017 19.3091 0.790392 20.7308 0.54711 21.9978C0.415235 22.6888 0.347734 23.4033 0.347734 24.121C0.347734 27.1289 1.50414 29.8861 3.44102 31.4957C3.59649 31.6251 3.68188 31.814 3.6811 32.0378C3.6811 35.8724 6.56603 38.9478 9.92947 38.6882C11.1282 38.5881 12.2106 38.7378 13.1464 39.1252C15.085 39.9284 17.0503 40.3712 18.6811 40.3712C19.1418 40.3712 19.5145 39.9984 19.5145 39.5378V1.20434C19.5143 0.878011 19.3231 0.580979 19.0261 0.445901ZM6.37384 18.6938C6.32829 18.7012 6.28353 18.7044 6.23876 18.7044C5.83759 18.7044 5.48353 18.4138 5.41681 18.0053C5.37126 17.7221 5.34767 17.4291 5.34767 17.1338C5.34767 15.6477 5.95478 14.2545 6.93134 13.4985C8.33353 12.4112 9.54689 10.9114 10.438 9.15928C10.6463 8.74913 11.1476 8.58717 11.5594 8.79467C11.9696 9.00381 12.1323 9.50593 11.924 9.91608C10.9214 11.8847 9.54767 13.579 7.95181 14.816C7.38212 15.2571 7.01431 16.167 7.01431 17.1338C7.01431 17.3381 7.02978 17.5415 7.06236 17.7368C7.13634 18.1909 6.8279 18.6189 6.37384 18.6938ZM12.8476 33.658C12.4863 33.658 12.1233 33.6735 11.7603 33.702C11.7587 33.702 11.7579 33.702 11.7563 33.702C10.1735 33.702 8.93884 32.133 8.93884 30.2043C8.94291 28.9014 8.35455 27.6814 7.32509 26.8539C6.96704 26.5657 6.91001 26.0409 7.19814 25.682C7.48704 25.3239 8.00947 25.2678 8.37002 25.555C9.79658 26.7017 10.6113 28.3976 10.6056 30.2068C10.6056 31.3404 11.2387 32.0379 11.6928 32.0379C12.0371 32.0086 12.4431 31.9915 12.8476 31.9915C13.3082 31.9915 13.681 32.3642 13.681 32.8248C13.681 33.2854 13.3082 33.658 12.8476 33.658ZM14.2702 22.2819C14.7251 22.7368 15.3477 23.3594 15.3477 24.5378C15.3477 24.9984 14.975 25.3711 14.5143 25.3711C14.0537 25.3711 13.681 24.9984 13.681 24.5378C13.681 24.069 13.5003 23.8688 13.0917 23.4603C12.6368 23.0053 12.0143 22.3828 12.0143 21.2044C12.0143 20.026 12.6369 19.4035 13.0918 18.9485C13.5003 18.54 13.681 18.3398 13.681 17.871C13.681 17.4104 14.0538 17.0377 14.5144 17.0377C14.975 17.0377 15.3478 17.4104 15.3478 17.871C15.3478 19.0494 14.7252 19.672 14.2703 20.1269C13.8617 20.5354 13.681 20.7356 13.681 21.2044C13.681 21.6731 13.8616 21.8734 14.2702 22.2819Z" fill="#CA7933"/>
<path d="M33.6797 20.3713C33.6797 19.2108 33.3623 18.0544 32.7625 17.0282C32.6055 16.7588 32.2938 16.5928 31.9984 16.6164C31.6867 16.6335 31.4108 16.8231 31.2831 17.1079C30.8005 18.1829 30.112 19.1254 29.2356 19.9107C28.9019 20.2069 28.3559 20.176 28.0588 19.8456C27.752 19.503 27.7813 18.9757 28.1238 18.6688C29.1387 17.7598 29.8426 16.5675 30.16 15.2182L30.221 14.9017C30.2894 14.5322 30.3349 14.1587 30.3399 13.7786C30.3594 12.2682 29.7735 10.8514 28.547 9.4451C27.3052 8.0226 25.7459 7.17377 24.0841 7.05088C22.9852 6.98119 22.0021 6.62479 21.1797 6.07471V37.0379C23.0449 37.0379 24.7775 36.264 26.0568 34.8577C26.2692 34.625 26.3319 34.293 26.2188 33.9991C26.1064 33.7045 25.8371 33.4994 25.5238 33.4677C24.4195 33.357 22.8138 32.9437 21.4352 31.609C21.1048 31.2891 21.0967 30.7601 21.4173 30.429C21.5712 30.2694 21.7787 30.1799 22 30.1767C22.21 30.1246 22.4346 30.2565 22.5941 30.4111C23.8807 31.6578 25.4456 31.8442 26.2643 31.8442C26.5377 31.8442 26.8657 31.8076 27.1856 31.7523C30.0281 30.9329 32.0131 28.3092 32.0131 25.3713C32.0131 25.1865 31.9984 25.0067 31.9756 24.8163C33.0775 23.5908 33.6797 22.0283 33.6797 20.3713Z" fill="#CA7933"/>
</svg>
