<svg width="29" height="41" viewBox="0 0 29 41" fill="none" xmlns="http://www.w3.org/2000/svg">
<path d="M18.6252 3.99176C19.0828 3.53418 19.8249 3.53418 20.2825 3.99176C20.7402 4.44934 20.7402 5.19137 20.2825 5.64902L17.4823 8.44918C17.8538 9.12691 18.1085 9.86199 18.2375 10.6299H18.9178C21.8471 10.6299 24.2303 8.24668 24.2303 5.31738V1.21582C24.2303 0.568633 23.7056 0.0439453 23.0585 0.0439453H18.9569C16.0808 0.0439453 13.7329 2.34168 13.6484 5.1977C14.5158 5.49957 15.3191 5.97254 16.0166 6.60051L18.6252 3.99176Z" fill="#F48120"/>
<path d="M15.9931 11.9682L15.9933 11.8065C15.9953 9.23543 13.9152 7.15332 11.3438 7.15332C10.6966 7.15332 10.1719 7.67801 10.1719 8.3252C10.1719 8.97238 10.6966 9.49707 11.3438 9.49707C11.96 9.49707 12.5393 9.73715 12.9748 10.173C13.7455 10.9444 13.6401 11.915 13.6494 11.9681C6.44109 12.5652 0.757812 18.6218 0.757812 25.9814C0.757812 33.7355 7.06625 40.0439 14.8203 40.0439C22.5744 40.0439 28.8828 33.7355 28.8828 25.9814C28.8828 18.6224 23.2005 12.5662 15.9931 11.9682ZM7.79297 31.6846C7.16734 31.6846 6.66016 31.1774 6.66016 30.5518C6.66016 29.9261 7.16734 29.4189 7.79297 29.4189C8.41859 29.4189 8.92578 29.9261 8.92578 30.5518C8.92578 31.1774 8.41859 31.6846 7.79297 31.6846ZM11.2695 35.1611C10.6439 35.1611 10.1367 34.6539 10.1367 34.0283C10.1367 33.4027 10.6439 32.8955 11.2695 32.8955C11.8952 32.8955 12.4023 33.4027 12.4023 34.0283C12.4023 34.6539 11.8952 35.1611 11.2695 35.1611ZM12.1981 30.6689C11.5725 30.6689 11.0653 30.1618 11.0653 29.5361C11.0653 28.9105 11.5725 28.4033 12.1981 28.4033C12.8238 28.4033 13.3309 28.9105 13.3309 29.5361C13.3309 30.1618 12.8238 30.6689 12.1981 30.6689Z" fill="#F48120"/>
</svg>
