<svg width="20" height="39" viewBox="0 0 20 39" fill="none" xmlns="http://www.w3.org/2000/svg">
<path d="M4.76172 11.949H15.6992C17.4223 11.949 18.8242 10.5471 18.8242 8.82397C18.8242 4.08538 14.9691 0.230225 10.2305 0.230225C5.49188 0.230225 1.63672 4.08538 1.63672 8.82397C1.63672 10.5471 3.03859 11.949 4.76172 11.949ZM14.1367 6.48022C14.7839 6.48022 15.3086 7.00491 15.3086 7.6521C15.3086 8.29929 14.7839 8.82397 14.1367 8.82397C13.4895 8.82397 12.9648 8.29929 12.9648 7.6521C12.9648 7.00491 13.4895 6.48022 14.1367 6.48022ZM10.2305 3.35522C10.8777 3.35522 11.4023 3.87991 11.4023 4.5271C11.4023 5.17429 10.8777 5.69897 10.2305 5.69897C9.58328 5.69897 9.05859 5.17429 9.05859 4.5271C9.05859 3.87991 9.58328 3.35522 10.2305 3.35522ZM6.32422 6.48022C6.97141 6.48022 7.49609 7.00491 7.49609 7.6521C7.49609 8.29929 6.97141 8.82397 6.32422 8.82397C5.67703 8.82397 5.15234 8.29929 5.15234 7.6521C5.15234 7.00491 5.67703 6.48022 6.32422 6.48022Z" fill="#6B463A"/>
<path d="M16.8711 15.6091V14.2927H3.58984V15.6091C1.88789 16.8402 0.855469 18.8315 0.855469 20.9577V34.9958C0.855469 36.9344 2.43258 38.5115 4.37109 38.5115H16.0898C18.0284 38.5115 19.6055 36.9344 19.6055 34.9958V20.9577C19.6055 18.8315 18.573 16.8401 16.8711 15.6091V15.6091ZM10.1798 28.6691C9.75047 28.6691 8.96719 28.6726 8.30617 28.6761V32.2615C8.30617 32.9087 7.78148 33.4333 7.1343 33.4333C6.48711 33.4333 5.96242 32.9087 5.96242 32.2615V21.324H5.96258C5.96258 21.0139 6.08539 20.7163 6.30438 20.4966C6.52422 20.2761 6.82289 20.1521 7.1343 20.1521H10.1798C12.5612 20.1521 14.4986 22.0624 14.4986 24.4105C14.4986 26.7587 12.5612 28.6691 10.1798 28.6691Z" fill="#6B463A"/>
<path d="M10.1788 22.4958H8.30859C8.31055 23.2042 8.31625 25.6529 8.31977 26.3322C8.9782 26.3287 9.75117 26.3252 10.1788 26.3252C11.2494 26.3252 12.1538 25.4483 12.1538 24.4105C12.1538 23.3727 11.2494 22.4958 10.1788 22.4958Z" fill="#6B463A"/>
</svg>
