<svg width="18" height="18" viewBox="0 0 18 18" fill="none" xmlns="http://www.w3.org/2000/svg">
<path d="M17.2248 10.9725L15.5703 9.67876C15.5913 9.47925 15.6093 9.24602 15.6093 8.99926C15.6093 8.7525 15.592 8.51927 15.5703 8.31976L17.2263 7.02527C17.5338 6.78227 17.6178 6.35101 17.422 5.99179L15.7015 3.015C15.5177 2.67901 15.115 2.5065 14.7063 2.65725L12.754 3.44099C12.3798 3.17099 11.9875 2.943 11.5818 2.76075L11.2848 0.690012C11.236 0.297 10.894 0 10.4898 0H7.03978C6.63552 0 6.2943 0.297 6.24627 0.684L5.94853 2.76226C5.55552 2.93927 5.1693 3.16427 4.77853 3.4425L2.82103 2.65651C2.45425 2.51476 2.0155 2.67374 1.83325 3.00825L0.110522 5.98876C-0.0927164 6.33227 -0.00872818 6.77851 0.305534 7.02752L1.96002 8.32127C1.93376 8.57401 1.92103 8.79377 1.92103 9.00004C1.92103 9.2063 1.9338 9.42602 1.96002 9.67954L0.304022 10.974C-0.00348989 11.2178 -0.0867399 11.649 0.10901 12.0075L1.82952 14.9843C2.01328 15.3195 2.41227 15.4935 2.82476 15.342L4.77702 14.5583C5.15052 14.8275 5.54276 15.0555 5.94853 15.2385L6.24553 17.3085C6.29426 17.703 6.63552 18 7.04052 18H10.4905C10.8948 18 11.2368 17.703 11.2848 17.316L11.5825 15.2385C11.9755 15.0608 12.361 14.8365 12.7525 14.5575L14.71 15.3435C14.8045 15.3802 14.9028 15.399 15.004 15.399C15.295 15.399 15.5627 15.24 15.6977 14.9925L17.4257 12C17.6178 11.649 17.5337 11.2178 17.2248 10.9725ZM8.76476 12C7.11027 12 5.76477 10.6545 5.76477 9C5.76477 7.34551 7.11027 6.00001 8.76476 6.00001C10.4192 6.00001 11.7647 7.34551 11.7647 9C11.7647 10.6545 10.4192 12 8.76476 12Z" fill="#303030"/>
</svg>
