<svg width="33" height="33" viewBox="0 0 33 33" fill="none" xmlns="http://www.w3.org/2000/svg">
<path d="M2.61371 15.8734L0.676207 17.7484C0.322644 18.0906 0.293707 18.6478 0.609894 19.0247L8.11271 27.9683L8.48958 19.68L3.86583 15.8268C3.49789 15.5203 2.95789 15.5403 2.61371 15.8734V15.8734Z" fill="#E0B464"/>
<path d="M20.7001 4.76606C21.7778 2.90824 20.4362 0.547119 18.2661 0.547119C16.1001 0.547119 14.7518 2.90387 15.8321 4.76606C14.275 5.39031 13.0104 6.59393 12.3086 8.10962H24.2236C23.5218 6.59393 22.2573 5.39031 20.7001 4.76606V4.76606Z" fill="#E0B464"/>
<path d="M11.7687 24.1096C11.7687 22.5588 13.0304 21.2971 14.5812 21.2971H18.3312C20.1659 21.2971 21.8267 22.0542 23.0187 23.2719C25.3643 20.8758 28.1964 21.3582 28.5463 21.2971C30.3165 19.6801 31.3937 17.3607 31.3937 14.8399V10.9221C31.3937 10.4044 30.974 9.98462 30.4562 9.98462C28.2189 9.98462 13.6946 9.98462 11.7062 9.98462C11.205 9.98462 10.7925 10.3789 10.7697 10.8795L9.82911 31.567C9.80486 32.1007 10.2314 32.5471 10.7656 32.5471H13.7435C12.5258 31.3551 11.7687 29.6942 11.7687 27.8596V24.1096ZM29.5187 11.8596V14.8399C29.5187 17.2771 28.2134 19.5126 26.1701 20.7369L25.8106 11.8596H29.5187Z" fill="#E0B464"/>
<path d="M31.4531 23.1721H27.7031C25.1184 23.1721 23.0156 25.2749 23.0156 27.8596C23.0156 25.2749 20.9128 23.1721 18.3281 23.1721H14.5781C14.0604 23.1721 13.6406 23.5919 13.6406 24.1096V27.8596C13.6406 30.4443 15.7434 32.5471 18.3281 32.5471H21.6898L18.6027 29.46C18.2366 29.0939 18.2366 28.5003 18.6027 28.1342C18.9688 27.7681 19.5624 27.7681 19.9285 28.1342L23.0156 31.2213L26.1028 28.1342C26.4688 27.7681 27.0624 27.7681 27.4286 28.1342C27.7947 28.5002 27.7947 29.0939 27.4286 29.46L24.3414 32.5471H27.7031C30.2878 32.5471 32.3906 30.4443 32.3906 27.8596V24.1096C32.3906 23.5919 31.9709 23.1721 31.4531 23.1721Z" fill="#E0B464"/>
</svg>
