<svg width="25" height="25" viewBox="0 0 25 25" fill="none" xmlns="http://www.w3.org/2000/svg">
<path d="M0.385937 6.17526C0.639812 5.27633 1.42328 4.63452 2.55475 4.63452C6.10998 4.63452 9.2417 7.0431 10.1041 10.4925L11.2857 15.2204C11.5353 16.2135 13.0125 16.0357 13.0125 15.0076V14.4775H24.3086V16.5868C24.3086 18.7022 23.4709 20.7237 21.9501 22.1944C20.43 23.6638 18.394 24.432 16.3123 24.3627C12.0007 24.5295 8.24406 21.6957 7.12352 17.5851L5.34044 11.0487C4.98752 9.75585 3.75902 8.85294 2.41947 8.85294C0.973235 8.85294 0.0235466 7.45841 0.385937 6.17526Z" fill="#72190F"/>
<path d="M15.1217 10.2593H22.1994C23.3624 10.2593 24.3086 11.2054 24.3086 12.3685V13.0716H13.0125V12.3685C13.0125 11.2054 13.9586 10.2593 15.1217 10.2593Z" fill="#72190F"/>
<path d="M15.3973 4.56671C13.977 3.61989 13.9777 1.43701 15.3973 0.490698C15.7227 0.274417 16.1573 0.362308 16.3723 0.685699C16.5879 1.00904 16.5 1.44578 16.1773 1.6607C15.5904 2.05145 15.5904 3.00601 16.1773 3.39676C17.5975 4.34359 17.5968 6.43276 16.1773 7.37903C15.8487 7.59685 15.4144 7.50264 15.2023 7.18403C14.9866 6.86064 15.0739 6.42465 15.3973 6.20903C15.9841 5.81828 15.9841 4.95746 15.3973 4.56671Z" fill="#72190F"/>
<path d="M19.6668 4.56671C18.2466 3.61989 18.2472 1.43701 19.6668 0.490698C19.9929 0.274417 20.4269 0.362308 20.6418 0.685699C20.8574 1.00904 20.7695 1.44578 20.4468 1.6607C19.8599 2.05145 19.8599 3.00601 20.4468 3.39676C21.867 4.34359 21.8663 6.43276 20.4468 7.37903C20.1183 7.59685 19.6839 7.50264 19.4718 7.18403C19.2562 6.86064 19.3434 6.42465 19.6668 6.20903C20.2537 5.81828 20.2537 4.95746 19.6668 4.56671Z" fill="#72190F"/>
</svg>
