<svg width="31" height="37" viewBox="0 0 31 37" fill="none" xmlns="http://www.w3.org/2000/svg">
<path d="M2.33339 12.0729L8.49319 9.83095L9.56321 12.7707H11.808L10.4754 9.10947L16.6484 6.86271C17.6043 6.51473 17.5584 5.14258 16.5819 4.8588L7.51768 2.22553C7.07647 2.09735 6.6027 2.26968 6.34704 2.65162L1.09625 10.4951C0.530371 11.3405 1.37792 12.4206 2.33339 12.0729Z" fill="#2A9F08"/>
<path d="M11.5234 14.9504C12.1292 17.671 12.827 19.6628 15.6641 19.6628C18.5015 19.6628 22.2987 17.671 22.9046 14.9504H20.7867L22.5822 4.08284L28.6611 2.10172C29.215 1.92123 29.5177 1.32596 29.3371 0.77218C29.1567 0.218329 28.561 -0.0844369 28.0076 0.0961959L21.3193 2.27588C20.945 2.39788 20.6697 2.71829 20.6055 3.1067L18.6487 14.9504H11.5234Z" fill="#2A9F08"/>
<path d="M26.1425 14.9507H22.9023C23.4939 17.6074 27.6507 21.9533 30.4023 22.0439L27.041 15.4529C26.849 15.1408 26.5089 14.9507 26.1425 14.9507Z" fill="#2A9F08"/>
<path d="M4.14125 15.4699L0.902344 22.0439C3.66907 21.9689 7.40234 19.5439 8.40234 14.9507H5.04983C4.6764 14.9508 4.33081 15.1482 4.14125 15.4699Z" fill="#2A9F08"/>
<path d="M22.9023 15.0439C19.776 20.539 11.5347 20.5354 8.40234 15.0439C6.8767 17.7186 4.10409 21.9855 0.902344 21.7493C1.15378 29.6742 7.67808 36.0439 15.663 36.0439C23.6478 36.0439 30.172 29.6745 30.4237 21.7499C27.1824 21.9856 24.4054 17.6861 22.9023 15.0439Z" fill="#2A9F08"/>
</svg>
