<svg width="61" height="40" viewBox="0 0 61 40" fill="none" xmlns="http://www.w3.org/2000/svg">
<path d="M60.6053 17.1118C59.1981 16.5413 57.1301 13.856 54.9351 11.0154C50.9553 5.8516 46.443 0 41.5807 0C35.1565 0 31.6513 3.90176 30.4386 5.58548C29.0815 4.06005 25.3687 0.522147 20.149 0.522147C16.051 0.522147 11.0546 6.38784 6.6512 11.5628C4.1084 14.5477 1.70707 17.367 0.424531 17.8036C0.182604 17.8874 0.0159786 18.1088 0.00107849 18.362C-0.0138217 18.6161 0.126688 18.8562 0.359483 18.9652C2.51312 19.9806 4.7209 22.7216 7.27684 25.8938C10.8527 30.3353 14.9072 35.3688 20.2925 37.435C23.5715 38.6915 27.0953 39.3041 31.0697 39.3041C34.8718 39.3041 38.5558 38.7231 41.3388 38.2205C46.1228 37.3529 53.2767 27.8444 57.5487 22.1613C58.9133 20.3445 60.3262 18.4672 60.6817 18.2383C60.8883 18.12 61.015 17.8911 60.9982 17.6509C60.9833 17.4104 60.8325 17.201 60.6053 17.1118ZM54.0007 18.9685C51.1581 20.8477 44.0509 24.6721 32.6678 25.1954C20.9041 25.7276 12.2165 21.5711 8.49529 19.3633C11.0286 18.7723 13.177 17.5809 15.1092 16.5078C17.3002 15.2932 19.1942 14.2433 21.1692 14.2433C23.6116 14.2433 26.0185 15.0344 27.9517 15.671C29.5032 16.1819 30.7345 16.5823 31.6384 16.5153C32.4519 16.4613 33.5298 16.143 34.7769 15.7716C36.6739 15.2094 39.0361 14.5096 41.3127 14.5096C42.9489 14.5096 45.047 15.4841 47.2676 16.5172C49.4717 17.5465 51.737 18.6 54.0007 18.9685Z" fill="#CD66D1"></path>
</svg>
